wave.vcd
$date
	Sun Jul 20 13:55:47 2025
$end
$version
	Icarus Verilog
$end
$timescale
	1ps
$end
$scope module testbench $end
$var wire 1 ! read_active $end
$var wire 2 " data_out [1:0] $end
$var wire 2 # WLP [1:0] $end
$var wire 2 $ WLN [1:0] $end
$var wire 4 % PL [3:0] $end
$var wire 2 & BL [1:0] $end
$var parameter 32 ' A $end
$var parameter 32 ( ADDR_WIDTH $end
$var parameter 32 ) B $end
$var reg 1 * clk $end
$var reg 1 + column $end
$var reg 2 , data_in [1:0] $end
$var reg 2 - mode [1:0] $end
$var reg 1 . reset $end
$var reg 1 / writing_successful $end
$scope module dut $end
$var wire 2 0 BL [1:0] $end
$var wire 4 1 PL [3:0] $end
$var wire 1 2 PRG $end
$var wire 2 3 WLN [1:0] $end
$var wire 2 4 WLP [1:0] $end
$var wire 1 * clk $end
$var wire 1 + column $end
$var wire 2 5 data_in [1:0] $end
$var wire 2 6 data_out [1:0] $end
$var wire 2 7 mode [1:0] $end
$var wire 1 ! read_active $end
$var wire 1 . reset $end
$var wire 1 / writing_successful $end
$var parameter 32 8 A $end
$var parameter 32 9 ADDR_WIDTH $end
$var parameter 32 : B $end
$var parameter 1 ; BL_V_GND $end
$var parameter 1 < BL_V_MID $end
$var parameter 2 = MODE_IDLE $end
$var parameter 2 > MODE_READING $end
$var parameter 2 ? MODE_WRITING $end
$var parameter 2 @ PL_V_GND $end
$var parameter 2 A PL_V_HIGH $end
$var parameter 2 B PL_V_MID $end
$var parameter 2 C PL_V_READ $end
$var parameter 1 D PRG_READING $end
$var parameter 1 E PRG_WRITING $end
$var parameter 1 F READ_ACTIVE $end
$var parameter 1 G READ_NOT_ACTIVE $end
$var parameter 6 H S_COLLECT_DATA_1 $end
$var parameter 6 I S_COLLECT_DATA_2 $end
$var parameter 6 J S_COMPARE_DATA $end
$var parameter 6 K S_DESELECT_CELL_READING $end
$var parameter 6 L S_DESELECT_CELL_WRITING_1 $end
$var parameter 6 M S_DESELECT_CELL_WRITING_2 $end
$var parameter 6 N S_FIND_NEXT_BIT $end
$var parameter 6 O S_GO_NEXT_CELL $end
$var parameter 6 P S_IDLE $end
$var parameter 6 Q S_NO_FALSE_BITS_Q $end
$var parameter 6 R S_POWER_DOWN_1 $end
$var parameter 6 S S_POWER_DOWN_2 $end
$var parameter 6 T S_PREPARE_READING_1 $end
$var parameter 6 U S_PREPARE_READING_2 $end
$var parameter 6 V S_PREPARE_READING_3 $end
$var parameter 6 W S_PREPARE_WRITING_1 $end
$var parameter 6 X S_PREPARE_WRITING_2 $end
$var parameter 6 Y S_PREPARE_WRITING_3 $end
$var parameter 6 Z S_PREPARE_WRITING_4 $end
$var parameter 6 [ S_PREPARE_WRITING_5 $end
$var parameter 6 \ S_READING $end
$var parameter 6 ] S_READING_POSSIBLE $end
$var parameter 6 ^ S_WRITE_ERROR_BIT $end
$var parameter 6 _ S_WRITING_1 $end
$var parameter 6 ` S_WRITING_2 $end
$var parameter 6 a S_WRITING_WAITING_FOR_SIGNAL $end
$var parameter 1 b WLN_V_GND $end
$var parameter 1 c WLN_V_MID $end
$var parameter 1 d WLP_V_HIGH $end
$var parameter 1 e WLP_V_MID $end
$var parameter 1 f WRITING_NOT_SUCCESSFUL $end
$var parameter 1 g WRITING_SUCCESSFUL $end
$var reg 2 h BL_reg [1:0] $end
$var reg 2 i BL_reg_PREPARE_WRITING_2 [1:0] $end
$var reg 4 j PL_reg [3:0] $end
$var reg 4 k PL_reg_PREPARE_WRITING_2 [3:0] $end
$var reg 1 l PRG_reg $end
$var reg 2 m WLN_reg [1:0] $end
$var reg 2 n WLP_reg [1:0] $end
$var reg 2 o counter [1:0] $end
$var reg 2 p data_in_reg [1:0] $end
$var reg 2 q data_in_reg_1 [1:0] $end
$var reg 2 r data_in_reg_2 [1:0] $end
$var reg 2 s data_out_reg [1:0] $end
$var reg 1 t read_active_reg $end
$var reg 5 u state [4:0] $end
$var reg 2 v write_row [1:0] $end
$var reg 1 w writing_successful_reg $end
$var integer 32 x i [31:0] $end
$upscope $end
$upscope $end
$enddefinitions $end
$comment Show the parameter values. $end
$dumpall
1g
0f
1e
0d
0c
1b
b10000 a
b1011 `
b1010 _
b11001 ^
b10111 ]
b10101 \
b1000 [
b111 Z
b110 Y
b101 X
b100 W
b10011 V
b10010 U
b10001 T
b1111 S
b1110 R
b11000 Q
b0 P
b10100 O
b1001 N
b1101 M
b1100 L
b10110 K
b11 J
b10 I
b1 H
0G
1F
1E
0D
b10 C
b1 B
b11 A
b0 @
b1 ?
b0 >
b10 =
1<
0;
b10 :
b1 9
b10 8
b10 )
b1 (
b10 '
$end
#0
$dumpvars
b10 x
xw
bx v
bx u
xt
bx s
bx r
bx q
bx p
bx o
bx n
bx m
xl
b1xx k
bx j
b1x i
bx h
b1 7
bx 6
b0 5
bx 4
bx 3
x2
bx 1
bx 0
0/
1.
b1 -
b0 ,
0+
0*
bx &
bx %
bx $
bx #
bx "
x!
$end
#1000
b0 u
1*
#2000
0*
#3000
1*
#4000
0*
#5000
b10 x
b100 k
b10 i
b1 u
b0 v
b0 o
0!
0t
b11 #
b11 4
b11 n
b11 $
b11 3
b11 m
b0 %
b0 1
b0 j
b0 &
b0 0
b0 h
1*
0.
#6000
0*
#7000
b10 u
b0 q
1*
#8000
0*
#9000
b11 u
b0 r
1*
#10000
0*
#11000
b100 u
b0 p
1*
#12000
0*
#13000
b101 u
b0 $
b0 3
b0 m
1*
#14000
0*
#15000
b10 x
b110 u
b100 %
b100 1
b100 j
b10 &
b10 0
b10 h
1*
#16000
0*
#17000
b111 u
b11 $
b11 3
b11 m
1*
#18000
0*
#19000
b10 x
b111 k
b1000 u
b111 %
b111 1
b111 j
1*
#20000
0*
#21000
b1001 u
12
1l
1*
#22000
0*
#23000
b1 o
1*
#24000
0*
#25000
b10 o
1*
#26000
0*
#27000
b1110 u
1*
#28000
0*
#29000
b10 x
b100 k
b1111 u
b100 %
b100 1
b100 j
1*
#30000
0*
#31000
b10 x
b100 k
b10 i
b10001 u
b0 &
b0 0
b0 h
b0 %
b0 1
b0 j
1*
