wave.vcd
$date
	Mon Jul 21 15:58:06 2025
$end
$version
	Icarus Verilog
$end
$timescale
	1ps
$end
$scope module testbench $end
$var wire 1 ! PRG $end
$var wire 1 " output_read_circuit $end
$var wire 1 # read_active $end
$var wire 2 $ data_out [1:0] $end
$var wire 2 % WLP [1:0] $end
$var wire 2 & WLN [1:0] $end
$var wire 4 ' PL [3:0] $end
$var wire 2 ( BL [1:0] $end
$var parameter 32 ) A $end
$var parameter 32 * ADDR_WIDTH $end
$var parameter 32 + B $end
$var parameter 1 , BL_V_GND $end
$var parameter 1 - BL_V_MID $end
$var parameter 2 . MODE_IDLE $end
$var parameter 2 / MODE_READING $end
$var parameter 2 0 MODE_WRITING $end
$var parameter 2 1 PL_V_GND $end
$var parameter 2 2 PL_V_HIGH $end
$var parameter 2 3 PL_V_MID $end
$var parameter 2 4 PL_V_READ $end
$var parameter 1 5 PRG_READING $end
$var parameter 1 6 PRG_WRITING $end
$var parameter 1 7 READ_ACTIVE $end
$var parameter 1 8 READ_NOT_ACTIVE $end
$var parameter 1 9 WLN_V_GND $end
$var parameter 1 : WLN_V_MID $end
$var parameter 1 ; WLP_V_HIGH $end
$var parameter 1 < WLP_V_MID $end
$var parameter 1 = WRITING_NOT_SUCCESSFUL $end
$var parameter 1 > WRITING_SUCCESSFUL $end
$var reg 1 ? clk $end
$var reg 1 @ column $end
$var reg 2 A data_in [1:0] $end
$var reg 2 B mode [1:0] $end
$var reg 1 C reset $end
$var reg 1 D writing_successful $end
$var integer 32 E i [31:0] $end
$var integer 32 F j [31:0] $end
$scope module dut $end
$var wire 2 G BL [1:0] $end
$var wire 4 H PL [3:0] $end
$var wire 1 I PRG $end
$var wire 2 J WLN [1:0] $end
$var wire 2 K WLP [1:0] $end
$var wire 1 ? clk $end
$var wire 1 @ column $end
$var wire 2 L data_in [1:0] $end
$var wire 2 M data_out [1:0] $end
$var wire 2 N mode [1:0] $end
$var wire 1 " output_read_circuit $end
$var wire 1 # read_active $end
$var wire 1 C reset $end
$var wire 1 D writing_successful $end
$var parameter 32 O A $end
$var parameter 32 P ADDR_WIDTH $end
$var parameter 32 Q B $end
$var parameter 1 R BL_V_GND $end
$var parameter 1 S BL_V_MID $end
$var parameter 2 T MODE_IDLE $end
$var parameter 2 U MODE_READING $end
$var parameter 2 V MODE_WRITING $end
$var parameter 2 W PL_V_GND $end
$var parameter 2 X PL_V_HIGH $end
$var parameter 2 Y PL_V_MID $end
$var parameter 2 Z PL_V_READ $end
$var parameter 1 [ PRG_READING $end
$var parameter 1 \ PRG_WRITING $end
$var parameter 1 ] READ_ACTIVE $end
$var parameter 1 ^ READ_NOT_ACTIVE $end
$var parameter 7 _ S_COLLECT_DATA_1 $end
$var parameter 7 ` S_COLLECT_DATA_2 $end
$var parameter 7 a S_COMPARE_DATA $end
$var parameter 7 b S_DESELECT_CELL_READING_1 $end
$var parameter 7 c S_DESELECT_CELL_READING_2 $end
$var parameter 7 d S_DESELECT_CELL_WRITING_1 $end
$var parameter 7 e S_DESELECT_CELL_WRITING_2 $end
$var parameter 7 f S_FIND_NEXT_BIT $end
$var parameter 7 g S_GO_NEXT_CELL $end
$var parameter 7 h S_IDLE $end
$var parameter 7 i S_NO_FALSE_BITS_Q $end
$var parameter 7 j S_POWER_DOWN_1 $end
$var parameter 7 k S_POWER_DOWN_2 $end
$var parameter 7 l S_PREPARE_READING $end
$var parameter 7 m S_PREPARE_WRITING_1 $end
$var parameter 7 n S_PREPARE_WRITING_2 $end
$var parameter 7 o S_PREPARE_WRITING_3 $end
$var parameter 7 p S_PREPARE_WRITING_4 $end
$var parameter 7 q S_PREPARE_WRITING_5 $end
$var parameter 7 r S_READING_1 $end
$var parameter 7 s S_READING_2 $end
$var parameter 7 t S_READING_POSSIBLE $end
$var parameter 7 u S_WRITE_ERROR_BIT $end
$var parameter 7 v S_WRITE_ERROR_BIT_1 $end
$var parameter 7 w S_WRITE_ERROR_BIT_10 $end
$var parameter 7 x S_WRITE_ERROR_BIT_11 $end
$var parameter 7 y S_WRITE_ERROR_BIT_2 $end
$var parameter 7 z S_WRITE_ERROR_BIT_3 $end
$var parameter 7 { S_WRITE_ERROR_BIT_4 $end
$var parameter 7 | S_WRITE_ERROR_BIT_5 $end
$var parameter 7 } S_WRITE_ERROR_BIT_6 $end
$var parameter 7 ~ S_WRITE_ERROR_BIT_7 $end
$var parameter 7 !" S_WRITE_ERROR_BIT_8 $end
$var parameter 7 "" S_WRITE_ERROR_BIT_9 $end
$var parameter 7 #" S_WRITING_1 $end
$var parameter 7 $" S_WRITING_2 $end
$var parameter 7 %" S_WRITING_WAITING_FOR_SIGNAL $end
$var parameter 1 &" WLN_V_GND $end
$var parameter 1 '" WLN_V_MID $end
$var parameter 1 (" WLP_V_HIGH $end
$var parameter 1 )" WLP_V_MID $end
$var parameter 1 *" WRITING_NOT_SUCCESSFUL $end
$var parameter 1 +" WRITING_SUCCESSFUL $end
$var reg 2 ," BL_reg [1:0] $end
$var reg 2 -" BL_reg_PREPARE_WRITING_2 [1:0] $end
$var reg 4 ." PL_reg [3:0] $end
$var reg 4 /" PL_reg_PREPARE_WRITING_2 [3:0] $end
$var reg 1 0" PRG_reg $end
$var reg 2 1" WLN_reg [1:0] $end
$var reg 2 2" WLP_reg [1:0] $end
$var reg 2 3" counter [1:0] $end
$var reg 2 4" data_in_reg [1:0] $end
$var reg 2 5" data_in_reg_1 [1:0] $end
$var reg 2 6" data_in_reg_2 [1:0] $end
$var reg 2 7" data_out_reg [1:0] $end
$var reg 2 8" mode_reg [1:0] $end
$var reg 1 9" read_active_reg $end
$var reg 2 :" read_row [1:0] $end
$var reg 6 ;" state [5:0] $end
$var reg 2 <" write_row [1:0] $end
$var reg 1 =" writing_successful_reg $end
$var integer 32 >" i [31:0] $end
$upscope $end
$upscope $end
$enddefinitions $end
$comment Show the parameter values. $end
$dumpall
1+"
0*"
1)"
0("
0'"
1&"
b10000 %"
b1011 $"
b1010 #"
b100011 ""
b100010 !"
b100001 ~
b100000 }
b11111 |
b11110 {
b11101 z
b11100 y
b100101 x
b100100 w
b11011 v
b11001 u
b10111 t
b11010 s
b10101 r
b1000 q
b111 p
b110 o
b101 n
b100 m
b10001 l
b1111 k
b1110 j
b11000 i
b0 h
b10100 g
b1001 f
b1101 e
b1100 d
b100111 c
b100110 b
b11 a
b10 `
b1 _
0^
1]
1\
0[
b10 Z
b1 Y
b11 X
b0 W
b1 V
b0 U
b10 T
1S
0R
b10 Q
b1 P
b10 O
1>
0=
1<
0;
0:
19
08
17
16
05
b10 4
b1 3
b11 2
b0 1
b1 0
b0 /
b10 .
1-
0,
b10 +
b1 *
b10 )
$end
#0
$dumpvars
b10 >"
x="
bx <"
bx ;"
bx :"
x9"
bx 8"
bx 7"
bx 6"
bx 5"
bx 4"
bx 3"
bx 2"
bx 1"
x0"
b1xx /"
bx ."
b1x -"
bx ,"
b10 N
bx M
b11 L
bx K
bx J
xI
bx H
bx G
bx F
bx E
1D
1C
b10 B
b11 A
0@
0?
bx (
bx '
bx &
bx %
bx $
x#
z"
z!
$end
#1000
b0 ;"
b10 F
b10 E
1?
#2000
0?
0C
#3000
b10 >"
b100 /"
b10 -"
b0 $
b0 M
b0 7"
b0 4"
b0 6"
b0 5"
0="
0I
00"
b0 :"
b0 <"
b0 3"
0#
09"
b11 %
b11 K
b11 2"
b11 &
b11 J
b11 1"
b0 '
b0 H
b0 ."
b0 (
b0 G
b0 ,"
b10 F
b10 E
1?
#4000
0?
#5000
b0 /"
b0 -"
b10 F
b10 E
1?
#6000
0?
#7000
b10 F
b10 E
1?
#8000
0?
#9000
b10 F
b10 E
1?
#10000
0?
#11000
b10 F
b10 E
1?
#12000
0?
b1 B
b1 N
#13000
b10 F
b10 E
1?
#14000
0?
#15000
b10 F
b10 E
1?
#16000
0?
#17000
b10 F
b10 E
1?
#18000
0?
#19000
b10 F
b10 E
1?
#20000
0?
#21000
b10 F
b10 E
1?
#22000
0?
#23000
b10 F
b10 E
1?
#24000
0?
#25000
b10 F
b10 E
1?
#26000
0?
#27000
b10 F
b10 E
1?
#28000
0?
#29000
b10 F
b10 E
1?
#30000
0?
#31000
b10 F
b10 E
1?
#32000
0?
#33000
b10 F
b10 E
1?
#34000
0?
#35000
b10 F
b10 E
1?
#36000
0?
#37000
b10 F
b10 E
1?
#38000
0?
#39000
b10 F
b10 E
1?
#40000
0?
#41000
b10 F
b10 E
1?
#42000
0?
#43000
b10 F
b10 E
1?
#44000
0?
#45000
b10 F
b10 E
1?
#46000
0?
#47000
b10 F
b10 E
1?
#48000
0?
#49000
b10 F
b10 E
1?
#50000
0?
#51000
b10 F
b10 E
1?
#52000
0?
#53000
b10 F
b10 E
1?
#54000
0?
#55000
b10 F
b10 E
1?
#56000
0?
#57000
b10 F
b10 E
1?
#58000
0?
#59000
b10 F
b10 E
1?
#60000
0?
#61000
b10 F
b10 E
1?
#62000
0?
#63000
b10 F
b10 E
1?
#64000
0?
#65000
b10 F
b10 E
1?
#66000
0?
#67000
b10 F
b10 E
1?
#68000
0?
#69000
b10 F
b10 E
1?
#70000
0?
#71000
b10 F
b10 E
1?
#72000
0?
#73000
b10 F
b10 E
1?
#74000
0?
#75000
b10 F
b10 E
1?
#76000
0?
#77000
b10 F
b10 E
1?
#78000
0?
#79000
b10 F
b10 E
1?
#80000
0?
#81000
b10 F
b10 E
1?
#82000
0?
#83000
b10 F
b10 E
1?
#84000
0?
#85000
b10 F
b10 E
1?
#86000
0?
#87000
b10 F
b10 E
1?
#88000
0?
#89000
b10 F
b10 E
1?
#90000
0?
#91000
b10 F
b10 E
1?
#92000
0?
#93000
b10 F
b10 E
1?
#94000
0?
#95000
b10 F
b10 E
1?
#96000
0?
#97000
b10 F
b10 E
1?
#98000
0?
#99000
b10 F
b10 E
1?
#100000
0?
#101000
b10 F
b10 E
1?
#102000
0?
#103000
b10 F
b10 E
1?
#104000
0?
#105000
b10 F
b10 E
1?
#106000
0?
#107000
b10 F
b10 E
1?
#108000
0?
#109000
b10 F
b10 E
1?
#110000
0?
#111000
b10 F
b10 E
1?
#112000
0?
#113000
b10 F
b10 E
1?
#114000
0?
#115000
b10 F
b10 E
1?
#116000
0?
#117000
b10 F
b10 E
1?
#118000
0?
#119000
b10 F
b10 E
1?
#120000
0?
#121000
b10 F
b10 E
1?
#122000
0?
#123000
b10 F
b10 E
1?
#124000
0?
#125000
b10 F
b10 E
1?
#126000
0?
#127000
b10 F
b10 E
1?
#128000
0?
#129000
b10 F
b10 E
1?
#130000
0?
#131000
b10 F
b10 E
1?
#132000
0?
#133000
b10 F
b10 E
1?
#134000
0?
#135000
b10 F
b10 E
1?
#136000
0?
#137000
b10 F
b10 E
1?
#138000
0?
#139000
b10 F
b10 E
1?
#140000
0?
#141000
b10 F
b10 E
1?
#142000
0?
#143000
b10 F
b10 E
1?
#144000
0?
#145000
b10 F
b10 E
1?
#146000
0?
#147000
b10 F
b10 E
1?
#148000
0?
#149000
b10 F
b10 E
1?
#150000
0?
#151000
b10 F
b10 E
1?
#152000
0?
#153000
b10 F
b10 E
1?
#154000
0?
#155000
b10 F
b10 E
1?
#156000
0?
#157000
b10 F
b10 E
1?
#158000
0?
#159000
b10 F
b10 E
1?
#160000
0?
#161000
b10 F
b10 E
1?
#162000
0?
b10 B
b10 N
#163000
b10 F
b10 E
1?
#164000
0?
#165000
b10 F
b10 E
1?
#166000
0?
#167000
b10 F
b10 E
1?
#168000
0?
#169000
b10 F
b10 E
1?
#170000
0?
#171000
b10 F
b10 E
1?
#172000
0?
#173000
b10 F
b10 E
1?
#174000
0?
#175000
b10 F
b10 E
1?
#176000
0?
#177000
b10 F
b10 E
1?
#178000
0?
#179000
b10 F
b10 E
1?
#180000
0?
#181000
b10 F
b10 E
1?
#182000
0?
#183000
b10 F
b10 E
1?
#184000
0?
#185000
b10 F
b10 E
1?
#186000
0?
#187000
b10 F
b10 E
1?
#188000
0?
#189000
b10 F
b10 E
1?
#190000
0?
#191000
b10 F
b10 E
1?
#192000
0?
#193000
b10 F
b10 E
1?
#194000
0?
#195000
b10 F
b10 E
1?
#196000
0?
#197000
b10 F
b10 E
1?
#198000
0?
#199000
b10 F
b10 E
1?
#200000
0?
#201000
b10 F
b10 E
1?
#202000
0?
#203000
b10 F
b10 E
1?
#204000
0?
#205000
b10 F
b10 E
1?
#206000
0?
#207000
b10 F
b10 E
1?
#208000
0?
#209000
b10 F
b10 E
1?
#210000
0?
#211000
b10 F
b10 E
1?
#212000
0?
#213000
b10 F
b10 E
1?
#214000
0?
#215000
b10 F
b10 E
1?
#216000
0?
#217000
b10 F
b10 E
1?
#218000
0?
#219000
b10 F
b10 E
1?
#220000
0?
#221000
b10 F
b10 E
1?
#222000
0?
#223000
b10 F
b10 E
1?
#224000
0?
#225000
b10 F
b10 E
1?
#226000
0?
#227000
b10 F
b10 E
1?
#228000
0?
#229000
b10 F
b10 E
1?
#230000
0?
#231000
b10 F
b10 E
1?
#232000
0?
#233000
b10 F
b10 E
1?
#234000
0?
#235000
b10 F
b10 E
1?
#236000
0?
#237000
b10 F
b10 E
1?
#238000
0?
#239000
b10 F
b10 E
1?
#240000
0?
#241000
b10 F
b10 E
1?
#242000
0?
#243000
b10 F
b10 E
1?
#244000
0?
#245000
b10 F
b10 E
1?
#246000
0?
#247000
b10 F
b10 E
1?
#248000
0?
#249000
b10 F
b10 E
1?
#250000
0?
#251000
b10 F
b10 E
1?
#252000
0?
#253000
b10 F
b10 E
1?
#254000
0?
#255000
b10 F
b10 E
1?
#256000
0?
#257000
b10 F
b10 E
1?
#258000
0?
#259000
b10 F
b10 E
1?
#260000
0?
#261000
b10 F
b10 E
1?
#262000
0?
#263000
b10 F
b10 E
1?
#264000
0?
#265000
b10 F
b10 E
1?
#266000
0?
#267000
b10 F
b10 E
1?
#268000
0?
#269000
b10 F
b10 E
1?
#270000
0?
#271000
b10 F
b10 E
1?
#272000
0?
#273000
b10 F
b10 E
1?
#274000
0?
#275000
b10 F
b10 E
1?
#276000
0?
#277000
b10 F
b10 E
1?
#278000
0?
#279000
b10 F
b10 E
1?
#280000
0?
#281000
b10 F
b10 E
1?
#282000
0?
#283000
b10 F
b10 E
1?
#284000
0?
#285000
b10 F
b10 E
1?
#286000
0?
#287000
b10 F
b10 E
1?
#288000
0?
#289000
b10 F
b10 E
1?
#290000
0?
#291000
b10 F
b10 E
1?
#292000
0?
#293000
b10 F
b10 E
1?
#294000
0?
#295000
b10 F
b10 E
1?
#296000
0?
#297000
b10 F
b10 E
1?
#298000
0?
#299000
b10 F
b10 E
1?
#300000
0?
#301000
b10 F
b10 E
1?
#302000
0?
#303000
b10 F
b10 E
1?
#304000
0?
#305000
b10 F
b10 E
1?
#306000
0?
#307000
b10 F
b10 E
1?
#308000
0?
#309000
b10 F
b10 E
1?
#310000
0?
#311000
b10 F
b10 E
1?
#312000
0?
#313000
b10 F
b10 E
1?
#314000
0?
#315000
b10 F
b10 E
1?
#316000
0?
#317000
b10 F
b10 E
1?
#318000
0?
#319000
b10 F
b10 E
1?
#320000
0?
#321000
b10 F
b10 E
1?
#322000
0?
#323000
b10 F
b10 E
1?
#324000
0?
#325000
b10 F
b10 E
1?
#326000
0?
#327000
b10 F
b10 E
1?
#328000
0?
#329000
b10 F
b10 E
1?
#330000
0?
#331000
b10 F
b10 E
1?
#332000
0?
#333000
b10 F
b10 E
1?
#334000
0?
#335000
b10 F
b10 E
1?
#336000
0?
#337000
b10 F
b10 E
1?
#338000
0?
#339000
b10 F
b10 E
1?
#340000
0?
#341000
b10 F
b10 E
1?
#342000
0?
#343000
b10 F
b10 E
1?
#344000
0?
#345000
b10 F
b10 E
1?
#346000
0?
#347000
b10 F
b10 E
1?
#348000
0?
#349000
b10 F
b10 E
1?
#350000
0?
#351000
b10 F
b10 E
1?
#352000
0?
#353000
b10 F
b10 E
1?
#354000
0?
#355000
b10 F
b10 E
1?
#356000
0?
#357000
b10 F
b10 E
1?
#358000
0?
#359000
b10 F
b10 E
1?
#360000
0?
#361000
b10 F
b10 E
1?
